maquina final/resultados.vcd
$date
	Fri Dec  2 06:25:12 2022
$end
$version
	Icarus Verilog
$end
$timescale
	1ns
$end
$scope module testbench $end
$var wire 8 ! txd_tb [7:0] $end
$var wire 1 " tx_er_tb $end
$var wire 1 # tx_en_tb $end
$var wire 1 $ crs_tb $end
$var wire 1 % col_tb $end
$var wire 1 & code_status $end
$var wire 1 ' clk $end
$var wire 1 ( RX_ER $end
$var wire 1 ) RX_DV $end
$var wire 8 * RXD [7:0] $end
$var wire 1 + RESET $end
$scope module m1 $end
$var wire 8 , txd [7:0] $end
$var wire 10 - tx_to_rx_code_group [9:0] $end
$var wire 1 " tx_er $end
$var wire 1 # tx_en $end
$var wire 1 $ crs $end
$var wire 1 % col $end
$var wire 1 & code_status $end
$var wire 1 ' clk $end
$var wire 10 . a [9:0] $end
$var wire 1 ( RX_ER $end
$var wire 1 ) RX_DV $end
$var wire 8 / RXD [7:0] $end
$var wire 1 + RESET $end
$scope module r1 $end
$var wire 10 0 rx_code_group_out [9:0] $end
$var wire 1 ' clk $end
$var wire 1 + RESET $end
$var reg 8 1 RXD [7:0] $end
$var reg 1 ) RX_DV $end
$var reg 1 ( RX_ER $end
$var reg 13 2 nxt_state [12:0] $end
$var reg 13 3 state [12:0] $end
$var reg 1 4 valid $end
$upscope $end
$scope module s1 $end
$var wire 10 5 rx_code_group [9:0] $end
$var wire 1 ' clk $end
$var wire 1 + RESET $end
$var reg 1 & code_status $end
$var reg 13 6 nxt_state [12:0] $end
$var reg 1 7 rn_even $end
$var reg 7 8 rx [6:0] $end
$var reg 10 9 rx_code_group_out [9:0] $end
$var reg 13 : state [12:0] $end
$var reg 1 ; valid $end
$var integer 32 < cdg_cont [31:0] $end
$upscope $end
$scope module tcg $end
$var wire 8 = txd [7:0] $end
$var wire 1 " tx_er $end
$var wire 1 # tx_en $end
$var wire 1 ' gtx_clk $end
$var reg 1 > cg_timer_done $end
$var reg 1 % col $end
$var reg 4 ? count [3:0] $end
$var reg 1 $ crs $end
$var reg 10 @ data_index [9:0] $end
$var reg 1 A for_en $end
$var reg 9 B i [8:0] $end
$var reg 5 C nxt_state [4:0] $end
$var reg 5 D state [4:0] $end
$var reg 10 E tx_code_group [9:0] $end
$var reg 1 F tx_even $end
$upscope $end
$upscope $end
$scope module senales $end
$var wire 8 G RXD [7:0] $end
$var wire 1 ) RX_DV $end
$var wire 1 ( RX_ER $end
$var wire 1 & code_status $end
$var wire 1 % col $end
$var wire 1 $ crs $end
$var reg 1 + RESET $end
$var reg 1 ' clk $end
$var reg 1 # tx_en $end
$var reg 1 " tx_er $end
$var reg 8 H txd [7:0] $end
$upscope $end
$upscope $end
$enddefinitions $end
#0
$dumpvars
b0 H
bx G
0F
bx E
bx D
b1 C
bx B
xA
b100101100 @
b111 ?
0>
b0 =
b0 <
x;
bx :
bx 9
bx 8
07
b1 6
bx 5
x4
bx 3
bx 2
bx 1
bx 0
bx /
bx .
bx -
b0 ,
1+
bx *
x)
x(
0'
x&
x%
x$
1#
0"
b0 !
$end
#1
0&
b11111 8
0$
1F
b11111010 -
b11111010 5
b11111010 E
0%
b1 :
b1 D
b1 6
b1 2
0>
b1 C
0;
04
b0 ?
1'
#2
0'
#3
b1 3
b11111010 .
b11111010 0
b11111010 9
17
b10 6
b1100000 8
b1100000101 -
b1100000101 5
b1100000101 E
b1 ?
1'
#4
0'
#5
b10 2
0(
0)
b1100000101 .
b1100000101 0
b1100000101 9
b10 :
b10111100 *
b10111100 /
b10111100 1
b10111100 G
07
b1 6
1;
14
b10 ?
1'
#6
0'
#7
b1 2
17
b10 6
b10 3
b1 :
b11 ?
1'
#8
0'
#9
b1 6
b10 2
b10 :
b1 3
b100 ?
1'
#10
0'
#11
b1 2
07
b10 6
b10 3
b1 :
b101 ?
1'
#12
0'
#13
b1 6
b10 2
b10 :
b1 3
b110 ?
1'
#14
0'
#15
b1 2
17
b10 6
b10 3
b1 :
b111 ?
1'
#16
0'
b10111100 !
b10111100 ,
b10111100 =
b10111100 H
#17
b1 6
b10 2
b10 :
b1 3
b10 C
1>
b0 ?
1'
#18
0'
#19
0F
b1 2
07
b10 6
b10 D
b10 3
b1 :
0>
b10 C
b1 ?
1'
#20
0'
#21
b1 6
b10 2
b10 :
b1 3
b10 ?
1'
#22
0'
#23
b1 2
17
b10 6
b10 3
b1 :
b11 ?
1'
#24
0'
#25
b1 6
b10 2
b10 :
b1 3
b100 ?
1'
#26
0'
#27
b1 2
07
b10 6
b10 3
b1 :
b101 ?
1'
#28
0'
#29
b1 6
b10 2
b10 :
b1 3
b110 ?
1'
#30
0'
#31
b1 2
17
b10 6
b10 3
b1 :
b111 ?
1'
#32
b110110 8
b1 6
b110110101 -
b110110101 5
b110110101 E
0'
b1010000 !
b1010000 ,
b1010000 =
b1010000 H
#33
b110110101 .
b110110101 0
b110110101 9
b1 3
1>
b0 ?
1'
#34
0'
#35
0>
b1 ?
04
0;
1'
#36
0'
#37
b10 ?
1'
#38
0'
#39
b11 ?
1'
#40
0'
#41
b100 ?
1'
#42
0'
#43
b101 ?
1'
#44
0'
#45
b110 ?
1'
#46
0'
#47
b111 ?
1'
#48
0'
b10111100 !
b10111100 ,
b10111100 =
b10111100 H
#49
1>
b0 ?
1'
#50
0'
#51
0>
b1 ?
1'
#52
0'
#53
b10 ?
1'
#54
0'
#55
b11 ?
1'
#56
0'
#57
b100 ?
1'
#58
0'
#59
b101 ?
1'
#60
0'
#61
b110 ?
1'
#62
0'
#63
b111 ?
1'
#64
0'
b1010000 !
b1010000 ,
b1010000 =
b1010000 H
#65
1>
b0 ?
1'
#66
0'
#67
0>
b1 ?
1'
#68
0'
#69
b10 ?
1'
#70
0'
#71
b11 ?
1'
#72
0'
#73
b100 ?
1'
#74
0'
#75
b101 ?
1'
#76
0'
#77
b110 ?
1'
#78
0'
#79
b111 ?
1'
#80
0'
b10111100 !
b10111100 ,
b10111100 =
b10111100 H
#81
1>
b0 ?
1'
#82
0'
#83
0>
b1 ?
1'
#84
0'
#85
b10 ?
1'
#86
0'
#87
b11 ?
1'
#88
0'
#89
b100 ?
1'
#90
0'
#91
b101 ?
1'
#92
0'
#93
b110 ?
1'
#94
0'
#95
b111 ?
1'
#96
0'
b1010000 !
b1010000 ,
b1010000 =
b1010000 H
#97
1>
b0 ?
1'
#98
0'
#99
0>
b1 ?
1'
#100
0'
#101
b10 ?
1'
#102
0'
#103
b11 ?
1'
#104
0'
#105
b100 ?
1'
#106
0'
#107
b101 ?
1'
#108
0'
#109
b110 ?
1'
#110
0'
#111
b111 ?
1'
#112
0'
b11111011 !
b11111011 ,
b11111011 =
b11111011 H
#113
b11 C
1>
b0 ?
1'
#114
0'
#115
b1101101 8
1A
1$
b1101101000 -
b1101101000 5
b1101101000 E
b11 D
0>
b11 C
b1 ?
1'
#116
0'
#117
b1101101000 .
b1101101000 0
b1101101000 9
b10 ?
1'
#118
0'
#119
b11111011 *
b11111011 /
b11111011 1
b11111011 G
b11 ?
14
1;
1'
#120
0'
#121
b100 ?
1'
#122
0'
#123
b101 ?
1'
#124
0'
#125
b110 ?
1'
#126
0'
#127
b111 ?
1'
#128
0'
b0 !
b0 ,
b0 =
b0 H
#129
b10010 8
b10010111 -
b10010111 5
b10010111 E
b100 C
1F
1>
b0 ?
1'
#130
0'
#131
0A
b0 @
bx 8
bx -
bx 5
bx E
b100001011 B
b100 D
b10010111 .
b10010111 0
b10010111 9
0>
b100 C
b1 ?
1'
#132
0'
#133
bx .
bx 0
bx 9
b10 ?
1'
#134
0'
#135
b11 ?
04
0;
1'
#136
0'
#137
b100 ?
1'
#138
0'
#139
b101 ?
1'
#140
0'
#141
b110 ?
1'
#142
0'
#143
b111 ?
1'
#144
0'
b1 !
b1 ,
b1 =
b1 H
#145
0F
1A
1>
b0 ?
1'
#146
0'
#147
0A
b1 @
b1001110 8
b1001110100 -
b1001110100 5
b1001110100 E
b100001011 B
0>
b1 ?
1'
#148
0'
#149
b1001110100 .
b1001110100 0
b1001110100 9
b10 ?
1'
#150
0'
#151
b0 *
b0 /
b0 1
b0 G
b11 ?
14
1;
1'
#152
0'
#153
b100 ?
1'
#154
0'
#155
b101 ?
1'
#156
0'
#157
b110 ?
1'
#158
0'
#159
b111 ?
1'
#160
0'
b10 !
b10 ,
b10 =
b10 H
#161
1F
1A
1>
b0 ?
1'
#162
0'
#163
0A
b11010 @
b1000101 8
b1000101011 -
b1000101011 5
b1000101011 E
b100001011 B
0>
b1 ?
1'
#164
0'
#165
b1000101011 .
b1000101011 0
b1000101011 9
b10 ?
1'
#166
0'
#167
b1 *
b1 /
b1 1
b1 G
b11 ?
1'
#168
0'
#169
b100 ?
1'
#170
0'
#171
b101 ?
1'
#172
0'
#173
b110 ?
1'
#174
0'
#175
b111 ?
1'
#176
0'
b11 !
b11 ,
b11 =
b11 H
#177
0F
1A
1>
b0 ?
1'
#178
0'
#179
0A
b11011 @
b101101 8
b101101011 -
b101101011 5
b101101011 E
b100001011 B
0>
b1 ?
1'
#180
0'
#181
b101101011 .
b101101011 0
b101101011 9
b10 ?
1'
#182
0'
#183
b11 ?
04
0;
1'
#184
0'
#185
b100 ?
1'
#186
0'
#187
b101 ?
1'
#188
0'
#189
b110 ?
1'
#190
0'
#191
b111 ?
1'
#192
0'
b100 !
b100 ,
b100 =
b100 H
#193
1F
1A
1>
b0 ?
1'
#194
0'
#195
0A
b100100 @
b10011 8
b10011011 -
b10011011 5
b10011011 E
b100001011 B
0>
b1 ?
1'
#196
0'
#197
b10011011 .
b10011011 0
b10011011 9
b10 ?
1'
#198
0'
#199
b11 ?
1'
#200
0'
#201
b100 ?
1'
#202
0'
#203
b101 ?
1'
#204
0'
#205
b110 ?
1'
#206
0'
#207
b111 ?
1'
#208
0'
b101 !
b101 ,
b101 =
b101 H
#209
0F
1A
1>
b0 ?
1'
#210
0'
#211
0A
b100101 @
b1101011 8
b1101011001 -
b1101011001 5
b1101011001 E
b100001011 B
0>
b1 ?
1'
#212
0'
#213
b1101011001 .
b1101011001 0
b1101011001 9
b10 ?
1'
#214
0'
#215
b11 ?
1'
#216
0'
#217
b100 ?
1'
#218
0'
#219
b101 ?
1'
#220
0'
#221
b110 ?
1'
#222
0'
#223
b111 ?
1'
#224
0'
b110 !
b110 ,
b110 =
b110 H
#225
1F
1A
1>
b0 ?
1'
#226
0'
#227
0A
b111110 @
b1010011 8
b1010011001 -
b1010011001 5
b1010011001 E
b100001011 B
0>
b1 ?
1'
#228
0'
#229
b1010011001 .
b1010011001 0
b1010011001 9
b10 ?
1'
#230
0'
#231
b11 ?
1'
#232
0'
#233
b100 ?
1'
#234
0'
#235
b101 ?
1'
#236
0'
#237
b110 ?
1'
#238
0'
#239
b111 ?
1'
#240
0'
b111 !
b111 ,
b111 =
b111 H
#241
0F
1A
1>
b0 ?
1'
#242
0'
#243
0A
b111111 @
b111101 8
b111101001 -
b111101001 5
b111101001 E
b100001011 B
0>
b1 ?
1'
#244
0'
#245
b111101001 .
b111101001 0
b111101001 9
b10 ?
1'
#246
0'
#247
b11 ?
1'
#248
0'
#249
b100 ?
1'
#250
0'
#251
b101 ?
1'
#252
0'
#253
b110 ?
1'
#254
0'
#255
b111 ?
1'
#256
0'
b11111110 !
b11111110 ,
b11111110 =
b11111110 H
#257
1F
1A
1>
b0 ?
1'
#258
0'
#259
0A
b10010110 @
b101001 8
b101001001 -
b101001001 5
b101001001 E
b100001011 B
0>
b1 ?
1'
#260
0'
#261
b101001001 .
b101001001 0
b101001001 9
b10 ?
1'
#262
0'
#263
b11 ?
1'
#264
0'
#265
b100 ?
1'
#266
0'
#267
b101 ?
1'
#268
0'
#269
b110 ?
1'
#270
0'
#271
b111 ?
1'
#272
0'
b10101111 !
b10101111 ,
b10101111 =
b10101111 H
#273
0F
1A
1>
b0 ?
1'
#274
0'
#275
0A
b1000111 @
b110101 8
b110101101 -
b110101101 5
b110101101 E
b100001011 B
0>
b1 ?
1'
#276
0'
#277
b110101101 .
b110101101 0
b110101101 9
b10 ?
1'
#278
0'
#279
b11 ?
1'
#280
0'
#281
b100 ?
1'
#282
0'
#283
b101 ?
1'
#284
0'
#285
b110 ?
1'
#286
0'
#287
b111 ?
1'
#288
0'
b10111100 !
b10111100 ,
b10111100 =
b10111100 H
#289
1F
1A
1>
b0 ?
1'
#290
0'
#291
0A
b100000111 @
b1110 8
b1110101 -
b1110101 5
b1110101 E
b100001011 B
0>
b1 ?
1'
#292
0'
#293
b1110101 .
b1110101 0
b1110101 9
b10 ?
1'
#294
0'
#295
b11 ?
1'
#296
0'
#297
b100 ?
1'
#298
0'
#299
b101 ?
1'
#300
0'
#301
b110 ?
1'
#302
0'
#303
b111 ?
1'
#304
0'
b1010000 !
b1010000 ,
b1010000 =
b1010000 H
#305
0F
1A
1>
b0 ?
1'
#306
0'
#307
0A
b1010000 @
b11111 8
b11111000 -
b11111000 5
b11111000 E
b100001011 B
0>
b1 ?
1'
#308
0'
#309
b11111000 .
b11111000 0
b11111000 9
b10 ?
1'
#310
0'
#311
b11 ?
1'
#312
0'
#313
b100 ?
1'
#314
0'
#315
b101 ?
1'
#316
0'
#317
b110 ?
1'
#318
0'
#319
b111 ?
1'
#320
0'
b10111100 !
b10111100 ,
b10111100 =
b10111100 H
#321
1F
1A
1>
b0 ?
1'
#322
0'
#323
0A
b100000111 @
b1001000 8
b1001000101 -
b1001000101 5
b1001000101 E
b100001011 B
0>
b1 ?
1'
#324
0'
#325
b1001000101 .
b1001000101 0
b1001000101 9
b10 ?
1'
#326
0'
#327
b1010000 *
b1010000 /
b1010000 1
b1010000 G
b11 ?
14
1;
1'
#328
0'
#329
b100 ?
1'
#330
0'
#331
b101 ?
1'
#332
0'
#333
b110 ?
1'
#334
0'
#335
b111 ?
1'
#336
0'
b1010000 !
b1010000 ,
b1010000 =
b1010000 H
#337
0F
1A
1>
b0 ?
1'
#338
0'
#339
0A
b1010000 @
b11111 8
b11111000 -
b11111000 5
b11111000 E
b100001011 B
0>
b1 ?
1'
#340
0'
#341
b11111000 .
b11111000 0
b11111000 9
b10 ?
1'
#342
0'
#343
b11 ?
04
0;
1'
#344
0'
#345
b100 ?
1'
#346
0'
#347
b101 ?
1'
#348
0'
#349
b110 ?
1'
#350
0'
#351
b111 ?
1'
#352
0'
b10111100 !
b10111100 ,
b10111100 =
b10111100 H
#353
1F
1A
1>
b0 ?
1'
#354
0'
#355
0A
b100000111 @
b1001000 8
b1001000101 -
b1001000101 5
b1001000101 E
b100001011 B
0>
b1 ?
1'
#356
0'
#357
b1001000101 .
b1001000101 0
b1001000101 9
b10 ?
1'
#358
0'
#359
b11 ?
14
1;
1'
#360
0'
#361
b100 ?
1'
#362
0'
#363
b101 ?
1'
#364
0'
#365
b110 ?
1'
#366
0'
#367
b111 ?
1'
#368
0'
b1010000 !
b1010000 ,
b1010000 =
b1010000 H
#369
0F
1A
1>
b0 ?
1'
#370
0'
#371
0A
b1010000 @
b11111 8
b11111000 -
b11111000 5
b11111000 E
b100001011 B
0>
b1 ?
1'
#372
0'
#373
b11111000 .
b11111000 0
b11111000 9
b10 ?
1'
#374
0'
#375
b11 ?
04
0;
1'
#376
0'
#377
b100 ?
1'
#378
0'
#379
b101 ?
1'
#380
0'
#381
b110 ?
1'
#382
0'
#383
b111 ?
1'
#384
0'
#385
1F
1A
1>
b0 ?
1'
#386
0'
#387
0A
b1001000 8
b1001000101 -
b1001000101 5
b1001000101 E
b100001011 B
0>
b1 ?
1'
#388
0'
#389
b1001000101 .
b1001000101 0
b1001000101 9
b10 ?
1'
#390
0'
#391
b11 ?
14
1;
1'
#392
0'
#393
b100 ?
1'
#394
0'
#395
b101 ?
1'
#396
0'
#397
b110 ?
1'
#398
0'
#399
b111 ?
1'
#400
0'
#401
0F
1A
1>
b0 ?
1'
#402
0'
#403
0A
b110110 8
b110110101 -
b110110101 5
b110110101 E
b100001011 B
0>
b1 ?
1'
#404
0'
#405
b110110101 .
b110110101 0
b110110101 9
b10 ?
1'
#406
0'
#407
b11 ?
04
0;
1'
#408
0'
#409
b100 ?
1'
#410
0'
#411
b101 ?
1'
#412
0'
#413
b110 ?
1'
#414
0'
#415
b111 ?
1'
#416
0'
#417
1F
1A
1>
b0 ?
1'
#418
0'
#419
0A
b1001000 8
b1001000101 -
b1001000101 5
b1001000101 E
b100001011 B
0>
b1 ?
1'
#420
0'
#421
b1001000101 .
b1001000101 0
b1001000101 9
b10 ?
1'
#422
0'
#423
b11 ?
14
1;
1'
#424
0'
#425
b100 ?
1'
#426
0'
#427
b101 ?
1'
